Name,Country,Sex,BirthYear,Division,WeightClassKg,BodyweightKg,Bench1Kg,Bench2Kg,Bench3Kg,Best3BenchKg,Equipment,TotalKg,Place,Event,BirthDate
Judith McGauley,UK,F,1948,Masters 4,52,48.15,30,-37.5,-37.5,30,Single-ply,30,1,B,
Martine Roche,France,F,1956,Masters 3,52,51.42,67.5,-72.5,-77.5,67.5,Single-ply,67.5,1,B,
Evelyne Herbin,France,F,1956,Masters 3,63,62.41,70,75,-77.5,75,Single-ply,75,1,B,
Audhild Mathiesen,Norway,F,1957,Masters 3,57,55.88,77.5,82.5,84.5,84.5,Single-ply,84.5,1,B,
Ann Jordebo,Sweden,F,1960,Masters 3,84+,91.28,80,-90,90,90,Single-ply,90,1,B,
Václava Zodererová,Czechia,F,1961,Masters 3,52,50.54,45,47.5,-50,47.5,Single-ply,47.5,2,B,
Patricia Maciejewski,France,F,1961,Masters 3,69,68.18,82.5,87.5,-90.5,87.5,Single-ply,87.5,1,B,
Susanne Steidle,Germany,F,1964,Masters 2,84+,88.28,90,97.5,102.5,102.5,Single-ply,102.5,3,B,
Maureen Gordon,UK,F,1964,Masters 2,69,67.46,102.5,110,115,115,Single-ply,115,1,B,
Erzsébet Schneider,Hungary,F,1965,Masters 2,84,82.2,80,87.5,90,90,Single-ply,90,2,B,
Rita Shergold,UK,F,1965,Masters 2,63,61.3,87.5,92.5,-95,92.5,Single-ply,92.5,3,B,
Marie-France Cabos,France,F,1967,Masters 2,57,54.65,90,-95,-95,90,Single-ply,90,3,B,
Magdolna Petróczki,Hungary,F,1968,Masters 2,52,51.18,70,77.5,-80,77.5,Single-ply,77.5,2,B,
Florence Leccese,France,F,1969,Masters 2,69,66.86,-87.5,87.5,92.5,92.5,Single-ply,92.5,2,B,
Anita Traasdahl,Norway,F,1969,Masters 2,57,55.99,100,105,-112.5,105,Single-ply,105,2,B,
Jo Whiteley,UK,F,1970,Masters 2,84+,113.37,-140,145,-152.5,145,Single-ply,145,1,B,
Géraldine Verlaine,France,F,1970,Masters 2,52,50.93,75,77.5,-82.5,77.5,Single-ply,77.5,1,B,
Katarzyna Kowalik,Poland,F,1971,Masters 2,76,70.46,60,75,82.5,82.5,Single-ply,82.5,1,B,
Sanna Oksanen,Finland,F,1971,Masters 2,63,62.66,102.5,107.5,-112.5,107.5,Single-ply,107.5,1,B,
Véronique Descours,France,F,1971,Masters 2,63,60.94,75,82.5,92.5,92.5,Single-ply,92.5,2,B,
Pernilla Röhr,Sweden,F,1972,Masters 2,84,83.95,105,115,-125,115,Single-ply,115,1,B,
Joanne Laird,UK,F,1972,Masters 2,84+,130.37,135,-150,-152.5,135,Single-ply,135,2,B,
Tiina Voho,Finland,F,1973,Open,84,76.01,-145,-145,-152.5,,Single-ply,,DQ,B,
Erika Salamon,Hungary,F,1973,Masters 2,57,55.88,102.5,107.5,110,110,Single-ply,110,1,B,
Stéphanie Bastien,France,F,1974,Masters 1,84,82.15,85,120,-140,120,Single-ply,120,2,B,
Marcela Sandvik,Finland,F,1974,Open,52,51.49,100,105,-110,105,Single-ply,105,1,B,
Christelle Musseau,France,F,1974,Masters 1,63,58.17,72.5,77.5,-82.5,77.5,Single-ply,77.5,3,B,
Joanna Linna,Finland,F,1974,Masters 1,76,74.53,-110,110,-137.5,110,Single-ply,110,2,B,
Jadwiga Radwańska',Poland,F,1975,Masters 1,57,53.61,77.5,82.5,87.5,87.5,Single-ply,87.5,3,B,
Mélisa Meunier,France,F,1975,Masters 1,63,60.97,77.5,82.5,85,85,Single-ply,85,1,B,
Linda Kristensen,Norway,F,1977,Open,76,75.77,157.5,162.5,-172.5,162.5,Single-ply,162.5,2,B,
Agata Niewdana,Poland,F,1978,Masters 1,63,62.05,60,82.5,-87.5,82.5,Single-ply,82.5,2,B,
Siobhan Taylor,UK,F,1978,Masters 1,84+,120.92,-135,-140,142.5,142.5,Single-ply,142.5,1,B,
Krisztina Lója,Hungary,F,1979,Masters 1,69,68.22,95,-102.5,102.5,102.5,Single-ply,102.5,1,B,
Amanda Hughes,UK,F,1979,Masters 1,57,54.86,-85,87.5,90,90,Single-ply,90,2,B,
Lene Alexandra Øien,Norway,F,1981,Masters 1,57,54.92,-82.5,82.5,92.5,92.5,Single-ply,92.5,1,B,
Sandra Jakobsson,Sweden,F,1981,Masters 1,76,75.26,127.5,137.5,142.5,142.5,Single-ply,142.5,1,B,
Nicola Murphy,UK,F,1981,Masters 1,57,56.02,62.5,67.5,72.5,72.5,Single-ply,72.5,4,B,
Faye Jordan,UK,F,1982,Masters 1,69,67.43,100,-105,-105,100,Single-ply,100,2,B,
Charlie Marillier,UK,F,1983,Masters 1,84,83.87,135,140,-145,140,Single-ply,140,1,B,
Hildeborg Juvet Hugdal,Norway,F,1983,Open,84+,123.58,222.5,-230,235.5,235.5,Single-ply,235.5,1,B,
Sari Rauhala,Finland,F,1984,Open,84+,113.52,140,155,-162.5,155,Single-ply,155,4,B,
Kate Sweatman,UK,F,1985,Open,84+,133.83,-210,215,-232.5,215,Single-ply,215,2,B,
Ankie Timmers,Netherlands,F,1986,Open,84,82.49,182.5,190,195,195,Single-ply,195,1,B,
Ľubica Polkorábová,Slovakia,F,1988,Open,63,62.37,112.5,120,-125,120,Single-ply,120,2,B,
Ágnes Szabó,Hungary,F,1988,Open,84+,117.79,180,192.5,197.5,197.5,Single-ply,197.5,3,B,
Anna-Eveliina Partanen,Finland,F,1988,Open,69,68.45,-135,-137.5,-137.5,,Single-ply,,DQ,B,
Jodie Cook #1,UK,F,1988,Open,57,56.58,105,115,127.5,127.5,Single-ply,127.5,2,B,
Miroslava Horáková,Czechia,F,1988,Open,84,81.58,-95,95,-100,95,Single-ply,95,7,B,
Laura Savolainen,Sweden,F,1989,Open,57,55.93,-132.5,-132.5,-132.5,,Single-ply,,DQ,B,
Sofia Kamlund,Sweden,F,1990,Open,84,82.51,145,-150,155,155,Single-ply,155,3,B,
Frida Wik,Sweden,F,1991,Open,76,75.86,155,-162.5,-172.5,155,Single-ply,155,3,B,
Petra Švadlenková,Czechia,F,1992,Open,84,82.76,90,-100,100,100,Single-ply,100,6,B,
Annemia Pretzmann,Denmark,F,1992,Open,76,75.35,160,162.5,-172.5,162.5,Single-ply,162.5,1,B,
Oksana Motrunchyk,Ukraine,F,1992,Open,47,46.76,95,102.5,-105,102.5,Single-ply,102.5,1,B,
Romina Basting,UK,F,1993,Open,63,62.78,100,105,-110,105,Single-ply,105,3,B,
Karen Lai,UK,F,1994,Open,69,68.75,125,-132.5,-132.5,125,Single-ply,125,4,B,
Ingvild Hansen,Norway,F,1994,Open,69,67.33,152.5,-157.5,157.5,157.5,Single-ply,157.5,1,B,
Daria Ławniczak,Poland,F,1995,Open,84,76.31,147.5,152.5,155,155,Single-ply,155,2,B,
Rachel Steedman,UK,F,1995,Open,84,76.79,135,-150,-155,135,Single-ply,135,4,B,
Anastasiia Lysa,Ukraine,F,1995,Open,52,51.99,50,-80,85,85,Single-ply,85,3,B,
Blanka Bartoňková,Czechia,F,1995,Open,57,56.26,-105,105,-115,105,Single-ply,105,4,B,
Ines Kahrer,Austria,F,1996,Open,69,68.43,135,140,-155,140,Single-ply,140,2,B,
Zina Demian,Ukraine,F,1997,Open,52,51.46,92.5,-100,-107.5,92.5,Single-ply,92.5,2,B,
Lea-Sophie Gersberg,Germany,F,1997,Open,63,62.19,-122.5,122.5,130,130,Single-ply,130,1,B,
Hanna Buturlym,Ukraine,F,1997,Open,57,56.7,120,127.5,-130,127.5,Single-ply,127.5,3,B,
Alona Kaniuka,Ukraine,F,1998,Open,57,56.96,72.5,80,-85,80,Single-ply,80,5,B,
Katerina Pinionzh,Ukraine,F,1998,Open,69,68.89,115,-125,127.5,127.5,Single-ply,127.5,3,B,
Zuzanna Kula,Poland,F,1999,Open,57,55.58,-152.5,152.5,-160,152.5,Single-ply,152.5,1,B,
Karolina Kołata,Poland,F,1999,Open,84+,105.32,-190,-190,-195,,Single-ply,,DQ,B,
Alona Borshchevska,Ukraine,F,1999,Open,84,81.76,120,130,-145,130,Single-ply,130,5,B,
Sofie Finková,Czechia,F,2000,Juniors,57,55.73,95,102.5,110,110,Single-ply,110,1,B,
Natalia Wójtowicz,Poland,F,2001,Juniors,76,70.53,80,100,-110,100,Single-ply,100,1,B,
Patrycja Piec,Poland,F,2001,Juniors,63,61.58,112.5,117.5,120,120,Single-ply,120,2,B,
Oksana Sukhodieieva,Ukraine,F,2001,Juniors,43,42.46,72.5,-82.5,82.5,82.5,Single-ply,82.5,1,B,
Adriana Holubová,Czechia,F,2001,Juniors,69,64.52,115,120,-125,120,Single-ply,120,2,B,
Linnea Forslund,Sweden,F,2002,Juniors,63,62.32,115,120,122.5,122.5,Single-ply,122.5,1,B,
Daryna Mostova,Ukraine,F,2003,Juniors,69,63.64,50,-65,-65,50,Single-ply,50,3,B,
Mariia Polianska,Ukraine,F,2003,Juniors,52,49.37,50,-90,90,90,Single-ply,90,1,B,
Hilma Westerberg,Sweden,F,2004,Juniors,69,63.72,115,120,-135,120,Single-ply,120,1,B,
Martyna Janaszek,Poland,F,2005,Sub-Juniors,57,56.07,62.5,80,-90,80,Single-ply,80,2,B,
Justyna Pietrykowska,Poland,F,2005,Sub-Juniors,84,76.4,75,120,-136.5,120,Single-ply,120,1,B,
Natalia Selwiak,Poland,F,2005,Sub-Juniors,84+,100.06,110,120,-130,120,Single-ply,120,1,B,
Eerika Palosaari,Finland,F,2005,Sub-Juniors,57,54.91,85,87.5,97.5,97.5,Single-ply,97.5,1,B,
Ella Brincat Smith,UK,F,2005,Sub-Juniors,84+,96.4,90,95,100,100,Single-ply,100,2,B,
Rehina Fursenko,Ukraine,F,2006,Sub-Juniors,69,65.5,55,-102.5,-105,55,Single-ply,55,2,B,
Karolina Milatova,Slovakia,F,2006,Sub-Juniors,52,50.31,65,72.5,-77.5,72.5,Single-ply,72.5,1,B,
Milla Haapamäki,Finland,F,2006,Sub-Juniors,69,68.16,-105,-105,-112.5,,Single-ply,,DQ,B,
Sandra Dzieżok,Poland,F,2007,Sub-Juniors,63,58.49,70,75,77.5,77.5,Single-ply,77.5,1,B,
Gracie Besant,UK,F,2007,Sub-Juniors,76,74.91,67.5,72.5,77.5,77.5,Single-ply,77.5,1,B,
Jana Rojková,Czechia,F,2007,Sub-Juniors,69,64.64,100,105,110,110,Single-ply,110,1,B,
Zuzanna Znojek,Poland,F,2008,Sub-Juniors,47,45.44,25,,,25,Single-ply,25,1,B,
Françoise Heligon,France,F,1943,Masters 4,52,51.22,37.5,40,42.5,42.5,Raw,42.5,1,B,
Andrée Duboux,France,F,1946,Masters 4,57,55.33,47.5,50,52.5,52.5,Raw,52.5,1,B,
Judith McGauley,UK,F,1948,Masters 4,52,48.07,27.5,30,-32.5,30,Raw,30,2,B,
Anita Thimm,Germany,F,1950,Masters 4,63,58.54,60,62.5,65.5,65.5,Raw,65.5,1,B,
Guillemette Baudron,France,F,1950,Masters 4,47,46.72,40,42.5,-45,42.5,Raw,42.5,1,B,
Martine Laurent,France,F,1951,Masters 4,84,82.82,47.5,50,55,55,Raw,55,1,B,
Eva Speth,Germany,F,1954,Masters 3,84+,93.57,80,85,87.5,87.5,Raw,87.5,1,B,
Françoise Zielman,France,F,1955,Masters 3,76,73.11,50,55,-60,55,Raw,55,3,B,
Evelyne Herbin,France,F,1956,Masters 3,63,62.65,60,65,67.5,67.5,Raw,67.5,1,B,
Joelle Lemarchand,France,F,1956,Masters 3,84,83.36,55,57.5,60,60,Raw,60,3,B,
Janice Hawes,UK,F,1957,Masters 3,76,73.55,47.5,52.5,-60,52.5,Raw,52.5,4,B,
Ursula Häuser,Germany,F,1960,Masters 3,76,73.25,65,67.5,70,70,Raw,70,1,B,
Susanne Bäckström,Sweden,F,1960,Masters 3,76,74.97,55,57.5,60,60,Raw,60,2,B,
Václava Zodererová,Czechia,F,1961,Masters 3,52,50.1,45,47.5,-50,47.5,Raw,47.5,2,B,
Margetta Salminen,Finland,F,1961,Masters 3,63,62.17,60,62.5,-65,62.5,Raw,62.5,2,B,
Monika Norberg,Sweden,F,1961,Masters 3,84+,99.44,75,-82.5,-82.5,75,Raw,75,2,B,
Brigitte Landon,France,F,1961,Masters 3,52,49.16,55,-57.5,57.5,57.5,Raw,57.5,1,B,
Patricia Maciejewski,France,F,1961,Masters 3,69,68.39,75,80,-83.5,80,Raw,80,1,B,
Åsa Halvarsson,Sweden,F,1961,Masters 3,84,76.45,65,70,75,75,Raw,75,1,B,
Kerstin Klawitter-Thomsen,Germany,F,1962,Masters 3,84,83.83,-60,60,62.5,62.5,Raw,62.5,2,B,
Yvonne Dymock,Sweden,F,1962,Masters 3,63,62.35,55,-60,60,60,Raw,60,3,B,
Christine Lesellier,France,F,1963,Masters 3,57,56.51,77.5,82.5,-86,82.5,Raw,82.5,1,B,
Nadine Langlais,France,F,1964,Masters 2,57,55.35,52.5,-55,-55,52.5,Raw,52.5,6,B,
Maureen Gordon,UK,F,1964,Masters 2,69,67.39,72.5,77.5,80,80,Raw,80,2,B,
Katarina Beremark,Sweden,F,1964,Masters 2,84+,102.1,85,-90,90,90,Raw,90,2,B,
Minna Elgland,Finland,F,1965,Masters 2,76,75.83,-82.5,82.5,85,85,Raw,85,3,B,
Rita Shergold,UK,F,1965,Masters 2,63,61.61,60,65,67.5,67.5,Raw,67.5,4,B,
Kari Holmen Sunnarvik,Norway,F,1966,Masters 2,69,66.64,67.5,-72.5,-72.5,67.5,Raw,67.5,4,B,
Annica Aberg,Sweden,F,1966,Masters 2,84,83.45,75,80,-85,80,Raw,80,2,B,
Pusztai Beata,Hungary,F,1967,Masters 2,69,67.02,62.5,67.5,-70,67.5,Raw,67.5,6,B,
Marie-France Cabos,France,F,1967,Masters 2,57,55.29,70,72.5,-75,72.5,Raw,72.5,1,B,
Mazal Zarhin,Norway,F,1967,Masters 2,57,55.08,60,62.5,-70,62.5,Raw,62.5,3,B,
Carina Solhag,Sweden,F,1967,Masters 2,57,56.5,57.5,-62.5,-62.5,57.5,Raw,57.5,5,B,
Magdolna Petróczki,Hungary,F,1968,Masters 2,52,50.76,65,-70,-70,65,Raw,65,3,B,
Florence Leccese,France,F,1969,Masters 2,69,66.51,75,-77.5,-77.5,75,Raw,75,3,B,
Anita Traasdahl,Norway,F,1969,Masters 2,57,56.08,-70,70,-77.5,70,Raw,70,2,B,
Viktoria Cederholm,Sweden,F,1969,Masters 2,63,59.39,72.5,-75,-75,72.5,Raw,72.5,3,B,
Virginie Philippe,France,F,1969,Masters 2,52,51.17,70,-72.5,72.5,72.5,Raw,72.5,1,B,
Elaine Jackson #2,UK,F,1969,Masters 2,84+,109.96,77.5,82.5,87.5,87.5,Raw,87.5,3,B,
Karina Müller-Freyer,Germany,F,1970,Masters 2,84,82.64,70,75,-80,75,Raw,75,3,B,
Géraldine Verlaine,France,F,1970,Masters 2,52,51.33,67.5,70,72.5,72.5,Raw,72.5,2,B,
Lincoln Rose,UK,F,1970,Masters 2,69,67.6,82.5,85,87.5,87.5,Raw,87.5,1,B,
Heidi Sighovd,Norway,F,1971,Masters 2,76,74.16,-67.5,67.5,72.5,72.5,Raw,72.5,5,B,
Sanna Oksanen,Finland,F,1971,Masters 2,63,62.19,75,77.5,-82.5,77.5,Raw,77.5,1,B,
Véronique Descours,France,F,1971,Masters 2,63,60.12,-65,65,-72.5,65,Raw,65,5,B,
Tutta Mattsson,Finland,F,1971,Masters 2,84,83.62,87.5,-92.5,92.5,92.5,Raw,92.5,1,B,
Lisa Liddy,UK,F,1971,Masters 2,76,74.87,72.5,77.5,82.5,82.5,Raw,82.5,4,B,
Joanne Laird,UK,F,1972,Masters 2,84+,130.63,-95,95,97.5,97.5,Raw,97.5,1,B,
Ielja Strik,Netherlands,F,1973,Open,84,83.16,127.5,132.5,-140,132.5,Raw,132.5,2,B,
Tiina Voho,Finland,F,1973,Masters 2,76,75.35,95,102.5,,102.5,Raw,102.5,1,B,
Maggie McCormick,UK,F,1973,Masters 2,57,52.94,60,-62.5,-62.5,60,Raw,60,4,B,
Erika Salamon,Hungary,F,1973,Open,57,55.68,95,97.5,100,100,Raw,100,2,B,
Caroline Svarven,Sweden,F,1974,Masters 1,69,67.95,80,85,-87.5,85,Raw,85,5,B,
Marie Laure Bregere,France,F,1974,Masters 1,57,56.56,60,65,-67.5,65,Raw,65,6,B,
Emma Stott,UK,F,1974,Masters 1,57,56.08,60,65,-70,65,Raw,65,4,B,
Stéphanie Bastien,France,F,1974,Masters 1,84,81.48,87.5,92.5,-100,92.5,Raw,92.5,2,B,
Christelle Musseau,France,F,1974,Masters 1,63,57.96,60,62.5,-65,62.5,Raw,62.5,7,B,
Jenny Wik Norling,Sweden,F,1975,Masters 1,84+,125.76,-95,100,-105,100,Raw,100,3,B,
Jadwiga Radwańska',Poland,F,1975,Masters 1,52,51.5,70,75,-80,75,Raw,75,1,B,
Natasja Martis,Netherlands,F,1975,Masters 1,63,60.7,87.5,92.5,-95,92.5,Raw,92.5,2,B,
Joanne Parkin,UK,F,1975,Masters 1,84+,119.85,95,100,-102.5,100,Raw,100,2,B,
Mélisa Meunier,France,F,1975,Masters 1,63,60.27,70,72.5,-75,72.5,Raw,72.5,5,B,
Marianne Bouvard,France,F,1976,Masters 1,47,46.22,65,67.5,70,70,Raw,70,1,B,
Pauliina Suomela,Finland,F,1976,Masters 1,69,67.76,92.5,95,100,100,Raw,100,2,B,
Alona Malysheva,Ukraine,F,1976,Masters 1,63,59.96,65,-70,-70,65,Raw,65,6,B,
Stephanie Duboux,France,F,1976,Masters 1,76,75.62,77.5,82.5,-85,82.5,Raw,82.5,5,B,
Helen Hughes #1,UK,F,1976,Masters 1,57,56.08,80,85,87.5,87.5,Raw,87.5,1,B,
Oksana Hordiienko,Ukraine,F,1977,Masters 1,57,56.98,-70,70,75,75,Raw,75,2,B,
Tetyana Shavidze,Ukraine,F,1977,Masters 1,84,76.84,75,80,85,85,Raw,85,3,B,
Hanna Kadatska,Ukraine,F,1977,Open,69,63.51,102.5,107.5,112.5,112.5,Raw,112.5,2,B,
Jessica Sinikoski,Finland,F,1977,Masters 1,76,74.46,90,92.5,95,95,Raw,95,2,B,
Ina Scholz,Germany,F,1978,Masters 1,69,68.71,87.5,90,92.5,92.5,Raw,92.5,3,B,
Janika Kivelä,Finland,F,1979,Masters 1,57,56,70,-72.5,72.5,72.5,Raw,72.5,3,B,
Emilie Clavier,France,F,1979,Masters 1,69,67.36,-85,-87.5,87.5,87.5,Raw,87.5,4,B,
Krisztina Lója,Hungary,F,1979,Masters 1,69,68.49,80,85,-90,85,Raw,85,6,B,
Gitana Lipskienė,Lithuania,F,1979,Masters 1,76,75,92.5,-95,-95,92.5,Raw,92.5,4,B,
Daniälle Arts,Netherlands,F,1979,Masters 1,84,81.63,95,97.5,100,100,Raw,100,1,B,
Sabrina Bogner,Germany,F,1980,Masters 1,57,56.17,60,65,-67.5,65,Raw,65,5,B,
Niina Köninki,Finland,F,1981,Masters 1,63,61.43,90,95,-97.5,95,Raw,95,1,B,
Sandra Jakobsson,Sweden,F,1981,Masters 1,76,74.55,85,92.5,-97.5,92.5,Raw,92.5,3,B,
Mari Engberg,Finland,F,1982,Masters 1,69,67.87,105,110,112.5,112.5,Raw,112.5,1,B,
Pernilla Sundberg,Sweden,F,1982,Masters 1,63,62.39,77.5,-82.5,-82.5,77.5,Raw,77.5,3,B,
Delyth Jones,UK,F,1982,Masters 1,76,71.37,72.5,77.5,-82.5,77.5,Raw,77.5,6,B,
Stéphanie Alberti,France,F,1983,Masters 1,76,75.23,105,110,-118,110,Raw,110,1,B,
Kate Clarke,UK,F,1983,Masters 1,52,51.92,60,65,-67.5,65,Raw,65,2,B,
Rebecca Coggle,UK,F,1983,Masters 1,84+,144.32,117.5,125,130,130,Raw,130,1,B,
Nicola Edkins,UK,F,1985,Open,76,73.68,77.5,82.5,-85,82.5,Raw,82.5,7,B,
Johanna Laitinen,Finland,F,1986,Open,84+,111.65,130,135,-140,135,Raw,135,4,B,
Zsanett Palágyi,Hungary,F,1986,Open,63,62.21,100,102.5,107.5,107.5,Raw,107.5,3,B,
Ankie Timmers,Netherlands,F,1986,Open,84,82.37,117.5,120,122.5,122.5,Raw,122.5,3,B,
Bianca Sullivan,Austria,F,1986,Open,84,83.09,115,120,-125,120,Raw,120,4,B,
Raphaela Jungmann,Austria,F,1987,Open,69,68.19,102.5,107.5,-112.5,107.5,Raw,107.5,3,B,
Clare Dane,UK,F,1987,Open,52,50.9,57.5,-62.5,62.5,62.5,Raw,62.5,8,B,
Katja Jørgensen,Denmark,F,1988,Open,84,82.39,102.5,107.5,-112.5,107.5,Raw,107.5,7,B,
Ágnes Szabó,Hungary,F,1988,Open,84+,117.33,145,150,-152.5,150,Raw,150,3,B,
Stina Lindell,Finland,F,1988,Open,69,68.27,110,115,120,120,Raw,120,1,B,
Johanna Forsström,Finland,F,1988,Open,57,54.5,90,95,100,100,Raw,100,1,B,
Annika Zelander,Sweden,F,1988,Open,84,78.69,127.5,135,137.5,137.5,Raw,137.5,1,B,
Maria Kojoukhova,Finland,F,1989,Open,52,51.71,80,82.5,-87.5,82.5,Raw,82.5,4,B,
Anita Camilla Bratland,Norway,F,1989,Open,84,81.91,110,117.5,-120,117.5,Raw,117.5,5,B,
Sakar Hamawandi,Norway,F,1990,Open,47,46.95,70,75,-80,75,Raw,75,2,B,
Micaela Ödling,Sweden,F,1990,Open,76,73.6,110,115,-117.5,115,Raw,115,4,B,
Maria Karjalainen,Finland,F,1990,Open,57,56.48,85,90,-92.5,90,Raw,90,7,B,
Maria Letnes,Norway,F,1991,Open,76,74.95,112.5,-117.5,120,120,Raw,120,2,B,
Matilda Hjälle,Sweden,F,1991,Open,84+,106.19,145,152.5,155,155,Raw,155,2,B,
Jenni Henriksson,Finland,F,1992,Open,52,51.4,82.5,87.5,90,90,Raw,90,2,B,
Amélie Mierger,France,F,1992,Open,84+,148.25,147.5,155,157.5,157.5,Raw,157.5,1,B,
Sara Ellegaard Andreasen,Denmark,F,1993,Open,57,56.21,92.5,97.5,100,100,Raw,100,3,B,
Elise Rosenborg,Norway,F,1993,Open,63,61.75,105,110,-112.5,110,Raw,110,2,B,
Michelle Barth,Germany,F,1994,Open,76,73.61,112.5,-117.5,120,120,Raw,120,1,B,
Isabel Wagner,Germany,F,1994,Open,52,51.1,67.5,70,-75,70,Raw,70,7,B,
Mónika Lovas,Hungary,F,1994,Open,84+,126.24,120,127.5,132.5,132.5,Raw,132.5,5,B,
Charlotte MacPherson,UK,F,1995,Open,69,68.29,95,100,-105,100,Raw,100,5,B,
Lea Schreiner,Germany,F,1995,Open,84,78.68,100,105,107.5,107.5,Raw,107.5,6,B,
Lorraine Balbiani,France,F,1995,Open,52,51.78,95,-100,100,100,Raw,100,1,B,
Lucy Robinson #2,UK,F,1995,Open,84,83.21,-90,95,-100,95,Raw,95,8,B,
Amy McCarthy,UK,F,1995,Open,84,83.37,82.5,85,90,90,Raw,90,9,B,
Emelie Åslund,Sweden,F,1995,Open,47,46.15,82.5,87.5,-95,87.5,Raw,87.5,1,B,
Marianne Koanda Hatlem,Norway,F,1996,Open,63,62.72,90,95,100,100,Raw,100,4,B,
Rebekka Roemer Andersen,Denmark,F,1996,Open,76,75.57,102.5,-107.5,110,110,Raw,110,6,B,
Jesse Lentjes,Netherlands,F,1996,Open,52,50.91,65,70,75,75,Raw,75,6,B,
Kathrine Forsberg,Denmark,F,1996,Open,69,68.89,107.5,-112.5,-112.5,107.5,Raw,107.5,4,B,
Alison Huet,France,F,1996,Open,57,54.84,92.5,97.5,-100,97.5,Raw,97.5,5,B,
Hanna Buturlym,Ukraine,F,1997,Open,57,56.59,90,95,-102.5,95,Raw,95,6,B,
Sheina Kaye,UK,F,1997,Open,57,54.88,80,85,87.5,87.5,Raw,87.5,8,B,
Sopiko Kvantchiani,Georgia,F,1998,Open,52,51.74,82.5,87.5,-90,87.5,Raw,87.5,3,B,
Roosa Valkola,Finland,F,1998,Open,63,62.35,90,95,-100,95,Raw,95,5,B,
Anna Rykun,Ukraine,F,1998,Open,63,59.21,105,110,-112.5,110,Raw,110,1,B,
Marthine Myhr,Norway,F,1999,Open,76,74.48,107.5,112.5,-117.5,112.5,Raw,112.5,5,B,
Vilma Olsson,Sweden,F,1999,Open,76,75.2,110,117.5,-122.5,117.5,Raw,117.5,3,B,
Suki Moss,UK,F,1999,Open,63,62.38,77.5,82.5,-85,82.5,Raw,82.5,6,B,
Anna Taubert,Germany,F,2000,Juniors,84,81.67,97.5,102.5,107.5,107.5,Raw,107.5,1,B,
Phylicia Keizer,Netherlands,F,2000,Juniors,76,73.15,90,95,97.5,97.5,Raw,97.5,2,B,
Justine Hattou,France,F,2000,Juniors,57,56.23,72.5,77.5,-80,77.5,Raw,77.5,3,B,
Emily Cakebread,UK,F,2000,Juniors,63,62.12,75,80,-82.5,80,Raw,80,5,B,
Aurora Jokela,Finland,F,2000,Juniors,76,75.81,85,90,-97.5,90,Raw,90,4,B,
Ludivine Breymand,France,F,2000,Juniors,69,65.88,77.5,82.5,-87.5,82.5,Raw,82.5,4,B,
Julie Ribere,France,F,2000,Juniors,57,55.68,87.5,90,-92.5,90,Raw,90,1,B,
Maïssa Le Gallo,France,F,2000,Juniors,63,57.93,87.5,90,92.5,92.5,Raw,92.5,2,B,
Sofie Finková,Czechia,F,2000,Juniors,57,55.99,70,75,-77.5,75,Raw,75,4,B,
Bettina Hanlon,UK,F,2000,Juniors,76,71.49,92.5,97.5,102.5,102.5,Raw,102.5,1,B,
Rebecca Croes,Netherlands,F,2001,Juniors,52,51.35,70,75,-80,75,Raw,75,2,B,
Anna-Maria Habermann,Germany,F,2001,Juniors,69,67.58,90,95,-97.5,95,Raw,95,3,B,
Sanne van Loon,Netherlands,F,2001,Juniors,57,56.03,72.5,77.5,-80,77.5,Raw,77.5,2,B,
Merel van den Bosch,Netherlands,F,2001,Juniors,47,46.8,60,62.5,67.5,67.5,Raw,67.5,1,B,
Emiliia Tataryn,Ukraine,F,2001,Juniors,52,50.9,45,50,-52.5,50,Raw,50,3,B,
Adriana Holubová,Czechia,F,2001,Juniors,63,62.85,80,85,-92.5,85,Raw,85,3,B,
Emily Greaves,UK,F,2001,Juniors,84+,93.89,85,90,95,95,Raw,95,1,B,
Nataliya Cheremenko,Ukraine,F,2001,Open,52,51.84,82.5,-87.5,-90,82.5,Raw,82.5,5,B,
Cathelijne Gort,Netherlands,F,2001,Juniors,84,79.3,87.5,92.5,-97.5,92.5,Raw,92.5,2,B,
Marine Peltret,France,F,2002,Juniors,63,60.45,87.5,92.5,95,95,Raw,95,1,B,
Oryna Borovkova,Ukraine,F,2002,Juniors,63,60.94,75,80,-85,80,Raw,80,4,B,
Eloïse Bastien,France,F,2002,Juniors,47,44.54,57.5,60,-65,60,Raw,60,2,B,
Ines Herbaux,France,F,2003,Juniors,52,51.16,72.5,77.5,82.5,82.5,Raw,82.5,1,B,
Yasmin Burt,UK,F,2003,Juniors,69,67.42,90,95,97.5,97.5,Raw,97.5,1,B,
Vira Popruha,Ukraine,F,2003,Juniors,84+,130.19,-77.5,77.5,-85,77.5,Raw,77.5,2,B,
Nolwenn Le Douarin,France,F,2005,Sub-Juniors,76,70.04,65,67.5,-70,67.5,Raw,67.5,5,B,
Eerika Palosaari,Finland,F,2005,Sub-Juniors,57,55.33,67.5,72.5,77.5,77.5,Raw,77.5,1,B,
Kayleigh Grimble,UK,F,2005,Sub-Juniors,57,56.58,62.5,-67.5,-67.5,62.5,Raw,62.5,4,B,
Laurène Mingot,France,F,2005,Sub-Juniors,57,53.06,60,65,67.5,67.5,Raw,67.5,3,B,
Sara-Sofia Väliviita,Finland,F,2005,Sub-Juniors,69,67.65,72.5,77.5,-85,77.5,Raw,77.5,3,B,
Maria-Sophie Hinz,Germany,F,2006,Sub-Juniors,69,68.78,85,90,92.5,92.5,Raw,92.5,1,B,
Katie Tatum,UK,F,2006,Sub-Juniors,76,73.4,67.5,72.5,75,75,Raw,75,3,B,
Juuli Kostian,Finland,F,2006,Sub-Juniors,63,62.21,95,100.5,-103,100.5,Raw,100.5,1,B,
Yevheniia Hevko,Ukraine,F,2006,Sub-Juniors,52,51.19,62.5,67.5,-75,67.5,Raw,67.5,2,B,
Milla Haapamäki,Finland,F,2006,Sub-Juniors,76,70,80,82.5,-87.5,82.5,Raw,82.5,1,B,
Jana Rojková,Czechia,F,2007,Sub-Juniors,69,63.82,77.5,82.5,85,85,Raw,85,2,B,
Violet Clarke Waller,UK,F,2007,Sub-Juniors,52,51.81,42.5,45,47.5,47.5,Raw,47.5,3,B,
Borsika Kohalmi,Hungary,F,2008,Sub-Juniors,63,60.03,55,57.5,-60,57.5,Raw,57.5,2,B,
Jenna Tarvainen,Finland,F,2008,Sub-Juniors,47,46.92,55,57.5,60,60,Raw,60,1,B,
Moira Pritchard,UK,F,1967,Masters 2,63,62.6,-77.5,77.5,-82.5,77.5,Raw,77.5,2,B,
Annette Pedersen,Denmark,F,1968,Masters 2,76,73.52,82.5,87.5,92.5,92.5,Raw,92.5,2,B,
Angela Lauder,UK,F,1970,Masters 2,84,83.18,65,72.5,75,75,Raw,75,4,B,
Tiina Uotila,Finland,F,1972,Masters 2,69,66.82,65,67.5,-70,67.5,Raw,67.5,5,B,
Pirita Ruusulaakso,Finland,F,1975,Masters 1,63,61.05,75,-80,-80,75,Raw,75,4,B,
Alizée Roux,France,F,1995,Open,57,56.57,90,95,100,100,Raw,100,4,B,
Alexandra Hubinská,Slovakia,F,2000,Juniors,69,66.79,87.5,92.5,95,95,Raw,95,2,B,
Natalia Wójtowicz,Poland,F,2001,Juniors,76,69.96,85,-90,-90,85,Raw,85,5,B,
Justyna Szarek,Poland,F,2001,Juniors,76,72.59,90,95,-97.5,95,Raw,95,3,B,
Martyna Janaszek,Poland,F,2005,Sub-Juniors,57,55.77,62.5,67.5,70,70,Raw,70,2,B,
Justyna Pietrykowska,Poland,F,2005,Sub-Juniors,76,75.31,77.5,82.5,-87.5,82.5,Raw,82.5,2,B,
Natalia Selwiak,Poland,F,2005,Sub-Juniors,84+,99.66,65,70,75,75,Raw,75,1,B,
Wiktoria Bochniak,Poland,F,2005,Sub-Juniors,84,79.24,62.5,67.5,70,70,Raw,70,1,B,
Augusta Chlomko,Lithuania,F,2005,Sub-Juniors,47,45.88,47.5,50,52.5,52.5,Raw,52.5,2,B,
Marie Thibaud,France,F,2005,Sub-Juniors,52,51.27,65,70,75,75,Raw,75,1,B,
Nataša Mitrović,Serbia,F,2006,Sub-Juniors,76,69.07,60,62.5,67.5,67.5,Raw,67.5,4,B,
Zuzanna Znojek,Poland,F,2008,Sub-Juniors,47,45.33,35,40,-42.5,40,Raw,40,3,B,
Marc Huchet,France,M,1938,Masters 4,83,81.92,-95,95,105,105,Single-ply,105,4,B,
Göran Malmberg,Sweden,M,1943,Masters 4,83,81.79,-120,120,-132.5,120,Single-ply,120,3,B,
Louis Paruit,France,M,1944,Masters 4,93,88.22,-110,110,-115,110,Single-ply,110,3,B,
Mick Ellender,UK,M,1945,Masters 4,93,91.83,100,110,115,115,Single-ply,115,2,B,
Seppo Komppa,Finland,M,1945,Masters 4,93,92.87,120,125,-135,125,Single-ply,125,1,B,
John Terragni,Denmark,M,1947,Masters 4,74,72.95,122.5,127.5,135,135,Single-ply,135,1,B,
Markku Kemppainen,Finland,M,1949,Masters 4,66,65.47,107.5,115,-123,115,Single-ply,115,1,B,
Ivan Veselý,Czechia,M,1949,Masters 4,120,119.1,-90,-90,90,90,Single-ply,90,1,B,
Michael Amey,UK,M,1949,Masters 4,83,79.04,90,102.5,-107.5,102.5,Single-ply,102.5,5,B,
Didier Egels,France,M,1950,Masters 4,105,97.33,120,130,-135,130,Single-ply,130,2,B,
Claude Sitruk,France,M,1950,Masters 4,74,71.62,120,125,132.5,132.5,Single-ply,132.5,2,B,
Gerhard Baumeister,Germany,M,1952,Masters 4,83,82.54,-125,-132.5,140,140,Single-ply,140,1,B,
Alain Collard,France,M,1952,Masters 4,83,80.66,130,-137.5,137.5,137.5,Single-ply,137.5,2,B,
Claude Couturier,France,M,1952,Masters 4,74,72.77,-120,-125,,,Single-ply,,DQ,B,
Karl-Heinz May,Germany,M,1953,Masters 4,120+,121.24,155,-180,180,180,Single-ply,180,1,B,
Harri Tirronen,Finland,M,1953,Masters 4,105,102.99,160,-165,-167.5,160,Single-ply,160,1,B,
Stanisław Mentel,Poland,M,1954,Masters 3,93,91.97,215,-220,,215,Single-ply,215,1,B,
Vidar Alexander Ringvold,Norway,M,1955,Masters 3,120,113.42,-205,210,-225,210,Single-ply,210,2,B,
Helmut Rangnit,Germany,M,1956,Masters 3,120+,132.4,100,145,152.5,152.5,Single-ply,152.5,3,B,
Erick Deconinck,France,M,1956,Masters 3,93,87.82,165,-185,-185,165,Single-ply,165,4,B,
Anton Mihok,Slovakia,M,1957,Masters 3,74,72.41,140,145,150,150,Single-ply,150,1,B,
Patrick Malenfant,France,M,1958,Masters 3,74,72.03,-117.5,-120,120,120,Single-ply,120,3,B,
Yngve Gustafsson,Sweden,M,1959,Masters 3,120+,134.9,182.5,192.5,200,200,Single-ply,200,2,B,
Ronald Sura,Slovakia,M,1959,Masters 3,83,81.36,120,137.5,-147.5,137.5,Single-ply,137.5,3,B,
Tomas Ring,Sweden,M,1960,Masters 3,83,82.81,192.5,-216,-216,192.5,Single-ply,192.5,1,B,
Mariusz Hadrysiak,Poland,M,1961,Masters 3,105,100.94,220,230,-241.5,230,Single-ply,230,1,B,
John S. Christensen,Denmark,M,1961,Masters 3,120+,136.75,245,-257.5,-257.5,245,Single-ply,245,1,B,
Peer Haensicke,Germany,M,1961,Masters 3,93,92.33,202.5,-217.5,-217.5,202.5,Single-ply,202.5,2,B,
Štefan Koľšovský,Slovakia,M,1961,Masters 3,59,58.6,130,135,-137.5,135,Single-ply,135,1,B,
Andrii Bozhyk,Ukraine,M,1962,Masters 3,105,97.7,115,122.5,-127.5,122.5,Single-ply,122.5,3,B,
Andy Rigby,UK,M,1962,Masters 3,120,106.82,207.5,215,222.5,222.5,Single-ply,222.5,1,B,
Erik Rasmussen,Denmark,M,1962,Masters 3,83,82.95,155,162.5,165,165,Single-ply,165,2,B,
Hannu Peräsalo,Finland,M,1962,Masters 3,66,65.91,-95,95,-107.5,95,Single-ply,95,1,B,
Juha Makkonen,Finland,M,1962,Masters 3,120,105.15,195,-207.5,-210,195,Single-ply,195,4,B,
Miroslav Paukert,Czechia,M,1963,Masters 3,93,92.78,180,-187.5,-205,180,Single-ply,180,3,B,
Ismo Hietanen,Finland,M,1963,Masters 3,74,73.31,132.5,137.5,-147.5,137.5,Single-ply,137.5,2,B,
Stewart Cowan,UK,M,1963,Masters 3,120,112.48,-200,205,-212.5,205,Single-ply,205,3,B,
Fabrice Leroy,France,M,1963,Masters 3,105,103.48,210,-225,-241.5,210,Single-ply,210,2,B,
Bruno Bastien,France,M,1965,Masters 2,83,80.42,160,-172.5,-172.5,160,Single-ply,160,3,B,
Jukka Siltanen,Sweden,M,1965,Masters 2,74,73.28,137.5,145,-150,145,Single-ply,145,3,B,
Kalju Abner,Estonia,M,1965,Masters 2,105,93.71,182.5,-190,197.5,197.5,Single-ply,197.5,2,B,
Stuart Peskett,UK,M,1966,Masters 2,83,82.35,165,-180,180,180,Single-ply,180,2,B,
Mario Schnurr,Germany,M,1966,Masters 2,105,100.07,-220,220,-235,220,Single-ply,220,1,B,
Volodymyr Moroz,Ukraine,M,1966,Masters 2,59,58.71,-97.5,97.5,105,105,Single-ply,105,1,B,
Oleksandr Chernyshov,Ukraine,M,1966,Masters 2,66,65.69,160,170,-175,170,Single-ply,170,1,B,
Fabrice Bertin,France,M,1967,Masters 2,93,92.15,-230,230,255,255,Single-ply,255,2,B,
Bjarne Havnen,Norway,M,1968,Masters 2,120,119.68,230,235,245,245,Single-ply,245,1,B,
Petteri Laurikainen,Finland,M,1969,Masters 2,93,92.45,227.5,237.5,-257.5,237.5,Single-ply,237.5,3,B,
Nicklas Karlsson,Sweden,M,1969,Masters 2,120,112.99,-225,225,-235,225,Single-ply,225,3,B,
Maik Staegemann,Germany,M,1969,Masters 2,66,65.56,-165,-165,-165,,Single-ply,,DQ,B,
Darren Ball,UK,M,1970,Masters 2,120,119.21,225,-232.5,242.5,242.5,Single-ply,242.5,2,B,
Ove Henning Lorentzen,Norway,M,1971,Masters 2,83,82.53,215,-230,-230,215,Single-ply,215,1,B,
Vincent Eldin,France,M,1972,Masters 2,74,73.49,170,177.5,-182.5,177.5,Single-ply,177.5,2,B,
Kaj Wasenius,Finland,M,1972,Masters 2,105,103.03,130,155,-190,155,Single-ply,155,3,B,
Bartosz Żelazko,Poland,M,1973,Masters 2,74,73.65,187.5,-192.5,-200,187.5,Single-ply,187.5,1,B,
Andres Külaviir,Estonia,M,1973,Masters 2,120,113.65,-235,-240,-240,,Single-ply,,DQ,B,
Grzegorz Nocek,Poland,M,1973,Masters 2,93,92.38,-255,255,270,270,Single-ply,270,1,B,
David Dufour,France,M,1973,Masters 2,93,91.78,170,-180,-180,170,Single-ply,170,4,B,
Gert Koovit,Estonia,M,1973,Masters 2,120+,133.34,265,280,-290,280,Single-ply,280,1,B,
Tomasz Dębicki,Poland,M,1974,Masters 1,83,81.91,180,-185,-185,180,Single-ply,180,5,B,
Jérôme Guidez,France,M,1974,Masters 1,120+,150.08,230,-260,-290,230,Single-ply,230,2,B,
Scott Simon #1,UK,M,1974,Masters 1,120,113.43,245,255,262.5,262.5,Single-ply,262.5,1,B,
Arkadiusz Wloch,Poland,M,1975,Masters 1,74,73.96,-160,160,-185,160,Single-ply,160,3,B,
Marcus Holmgren,Sweden,M,1975,Masters 1,74,73.9,175,182.5,-190,182.5,Single-ply,182.5,2,B,
Kenneth Sandvik,Finland,M,1975,Open,120+,142.84,312.5,317.5,325,325,Single-ply,325,1,B,
Lionel Suc,France,M,1975,Masters 1,83,82.38,182.5,185,190,190,Single-ply,190,3,B,
Thierry Sivadier,France,M,1975,Masters 1,74,73.02,115,122.5,-130,122.5,Single-ply,122.5,4,B,
Mattias Humble,Sweden,M,1975,Masters 1,105,104.01,227.5,235,-260,235,Single-ply,235,3,B,
Thierry Kelle,France,M,1976,Masters 1,105,103.67,175,-200,-200,175,Single-ply,175,4,B,
Nicolas Bourgoo,France,M,1976,Masters 1,120+,148.76,180,195,-210,195,Single-ply,195,3,B,
Christian Roehner,Germany,M,1977,Masters 1,83,81.69,160,175,-185,175,Single-ply,175,6,B,
Mirko Vahl,Germany,M,1977,Masters 1,120,108.02,235,245,260,260,Single-ply,260,2,B,
Aki Kangasjärvi,Finland,M,1977,Masters 1,93,91.75,205,210,212.5,212.5,Single-ply,212.5,2,B,
Eryk Walczak,Poland,M,1977,Masters 1,105,103.36,-257.5,257.5,272.5,272.5,Single-ply,272.5,1,B,
Ville Vaivila,Finland,M,1977,Masters 1,66,65.59,80,117.5,127.5,127.5,Single-ply,127.5,1,B,
Peter Zuberec,Slovakia,M,1978,Masters 1,120,116.48,230,237.5,247.5,247.5,Single-ply,247.5,3,B,
Jiří Horník,Czechia,M,1978,Masters 1,93,88.46,195,205,210,210,Single-ply,210,3,B,
Tarmo Pärna,Estonia,M,1978,Open,120+,131.62,-310,-310,-315,,Single-ply,,DQ,B,
Viktor Shandryhos,Ukraine,M,1978,Masters 1,105,97.83,-215,-215,-215,,Single-ply,,DQ,B,
Ľubomír Pidanič,Slovakia,M,1978,Masters 1,93,92.15,240,250,-257.5,250,Single-ply,250,1,B,
Daniel Amey,UK,M,1978,Masters 1,93,88.08,165,175,-180,175,Single-ply,175,6,B,
Ricardo Roesler,Germany,M,1979,Masters 1,93,91.88,180,-197.5,200,200,Single-ply,200,4,B,
Kent Flaeten,Denmark,M,1979,Open,93,88.14,-222.5,222.5,-240,222.5,Single-ply,222.5,6,B,
Jani Haapamäki,Finland,M,1979,Open,74,73.38,200,205,210,210,Single-ply,210,2,B,
Oleksandr Ahadzhanian,Ukraine,M,1979,Open,59,58.61,120,130,-140,130,Single-ply,130,2,B,
Frank Barthel,Germany,M,1980,Masters 1,105,103.22,-270,-270,270,270,Single-ply,270,2,B,
Aaron Gideon,UK,M,1980,Open,66,65.51,-175,175,-190,175,Single-ply,175,4,B,
Michal Šícha,Czechia,M,1980,Masters 1,83,82.7,175,-185,-190,175,Single-ply,175,7,B,
Jozef Sotolar,Slovakia,M,1980,Masters 1,83,82.96,-210,-210,222.5,222.5,Single-ply,222.5,2,B,
Adam Balawejder,Poland,M,1981,Masters 1,74,73.94,230,-237.5,-237.5,230,Single-ply,230,1,B,
Andrii Balenkov,Ukraine,M,1981,Open,83,81.5,260,-270,270,270,Single-ply,270,1,B,
Pekka Koistinen,Finland,M,1981,Masters 1,93,90.88,190,-197.5,-207.5,190,Single-ply,190,5,B,
René Groß,Germany,M,1981,Masters 1,120+,128.75,287.5,337.5,-345,337.5,Single-ply,337.5,1,B,
Tony Schulz,Germany,M,1982,Masters 1,83,82.28,170,182.5,-185,182.5,Single-ply,182.5,4,B,
Rafał Zalewski,Poland,M,1983,Open,93,92.32,287.5,-295,300,300,Single-ply,300,1,B,
Bartłomiej Wirek,Poland,M,1983,Masters 1,83,79.5,220,-225,225,225,Single-ply,225,1,B,
Andy Champ,UK,M,1983,Open,105,100.85,255,265,-280,265,Single-ply,265,5,B,
Mads Friche,Denmark,M,1983,Open,83,82.56,-250,250,262.5,262.5,Single-ply,262.5,2,B,
Joakim Wång,Sweden,M,1983,Open,93,91.81,-260,-260,260,260,Single-ply,260,2,B,
Milan Selinger,Czechia,M,1984,Open,120,119.35,-290,-290,-290,,Single-ply,,DQ,B,
Zdeněk Tuháček,Czechia,M,1986,Open,105,99.76,240,250,-255,250,Single-ply,250,6,B,
Jeppe Frost Balsby,Denmark,M,1986,Open,105,104.22,-262.5,-262.5,-265,,Single-ply,,DQ,B,
Róbert Nemes,Hungary,M,1986,Open,93,92.02,-222.5,222.5,232.5,232.5,Single-ply,232.5,4,B,
Ivan Chuprinko,Ukraine,M,1986,Open,74,73.49,260,-280,-280,260,Single-ply,260,1,B,
Michael Gibson #2,UK,M,1987,Open,105,104.6,-275,275,-280,275,Single-ply,275,4,B,
Martin Marshall,UK,M,1987,Open,120+,128.13,-235,-237.5,-237.5,,Single-ply,,DQ,B,
Lieven De Saedeleer,Belgium,M,1988,Open,105,101.96,247.5,-262.5,-270,247.5,Single-ply,247.5,7,B,
Mariusz Grotkowski,Poland,M,1989,Open,66,65.77,-205,205,-225,205,Single-ply,205,1,B,
Per Marius Hole,Norway,M,1989,Open,120,119.25,-347.5,347.5,-376,347.5,Single-ply,347.5,1,B,
Raik Günterberg,Germany,M,1989,Open,83,82.58,245,257.5,-265,257.5,Single-ply,257.5,3,B,
Alex Foder,UK,M,1990,Open,74,73.85,180,-185,-195,180,Single-ply,180,4,B,
Allan Grenier,France,M,1990,Open,105,103.79,292.5,302.5,-310,302.5,Single-ply,302.5,1,B,
Hugo Duarte,UK,M,1990,Open,93,92.54,217.5,222.5,-227.5,222.5,Single-ply,222.5,7,B,
Daniel McGauley,UK,M,1990,Special Olympics,59,57.83,70,80,90,90,Single-ply,90,1,B,
Fredrik Eskil Myrvang,Norway,M,1990,Open,59,56.46,-185,185,-197.5,185,Single-ply,185,1,B,
Mykhailo Shablii,Ukraine,M,1991,Open,66,64.51,180,187.5,-205,187.5,Single-ply,187.5,3,B,
Ralf A. Male,Norway,M,1994,Open,105,104.48,295,-305,-305,295,Single-ply,295,2,B,
Gabriel Ndoja,Luxembourg,M,1995,Open,120,115.6,-235,235,-240,235,Single-ply,235,2,B,
Oliver Dahlkvist,Sweden,M,1995,Open,105,104.74,280,-297.5,-305,280,Single-ply,280,3,B,
Rasmus Mirblom,Sweden,M,1995,Open,120+,146.79,310,315,325,325,Single-ply,325,2,B,
Thomas Morgan #1,UK,M,1996,Open,93,91.83,222.5,230,-240,230,Single-ply,230,5,B,
Michal Vavrinec,Slovakia,M,1996,Open,93,92.35,232.5,240,-247.5,240,Single-ply,240,3,B,
Joseph Shaw,UK,M,1998,Open,120,113.95,205,225,-235,225,Single-ply,225,3,B,
Maciej Koloch,Poland,M,1999,Open,74,73.18,192.5,-200,-205,192.5,Single-ply,192.5,3,B,
Rostyslav Kinishchuk,Ukraine,M,1999,Open,66,64.41,-185,190,202.5,202.5,Single-ply,202.5,2,B,
Denis Kurečka,Czechia,M,1999,Open,120+,164.54,300,-312.5,-317.5,300,Single-ply,300,3,B,
Filip Lewczyk,Poland,M,2000,Juniors,120+,120.42,200,-210,-220,200,Single-ply,200,3,B,
Dominik Wegener,Germany,M,2000,Juniors,59,58.74,110,120,-125,120,Single-ply,120,1,B,
Kevin Schmid,Austria,M,2000,Juniors,83,83,-215,215,-222.5,215,Single-ply,215,2,B,
Maciej Zastawny,Poland,M,2000,Juniors,83,82.82,215,220,-232.5,220,Single-ply,220,1,B,
Arvid Sandström,Sweden,M,2000,Juniors,74,73.66,200,207.5,-215,207.5,Single-ply,207.5,1,B,
Vetle Skundberg,Norway,M,2000,Juniors,93,92.39,215,225,237.5,237.5,Single-ply,237.5,1,B,
Angus Gardner,UK,M,2000,Juniors,93,92.82,177.5,187.5,-195,187.5,Single-ply,187.5,3,B,
Jakub Dobiáš,Czechia,M,2000,Juniors,105,94.65,195,202.5,210,210,Single-ply,210,3,B,
Philippe Parage,Luxembourg,M,2001,Juniors,120+,123.79,190,197.5,202.5,202.5,Single-ply,202.5,2,B,
Radosław Dębicki,Poland,M,2001,Juniors,66,65.74,152.5,157.5,-165,157.5,Single-ply,157.5,1,B,
Oleh Chebotaiev,Ukraine,M,2001,Juniors,74,71.24,195,205,-212.5,205,Single-ply,205,2,B,
Tomáš Runštuk,Czechia,M,2002,Juniors,105,104.27,-180,-180,180,180,Single-ply,180,4,B,
David Warnquist,Sweden,M,2002,Juniors,105,104.54,230,242.5,262.5,262.5,Single-ply,262.5,1,B,
Ondřej Kaucký,Czechia,M,2002,Juniors,93,85.94,180,-190,-195,180,Single-ply,180,4,B,
Šimon Král,Czechia,M,2002,Juniors,120+,147.05,187.5,-207.5,-207.5,187.5,Single-ply,187.5,4,B,
Joe Spring,UK,M,2002,Juniors,120+,164.91,-160,-160,165,165,Single-ply,165,5,B,
Mark Dolzhenko,Ukraine,M,2002,Juniors,120,109.29,250,265,275,275,Single-ply,275,1,B,
Nathan Williams,UK,M,2003,Juniors,66,64.94,112.5,117.5,-125,117.5,Single-ply,117.5,2,B,
Ihor Hroshko,Ukraine,M,2003,Juniors,93,83.53,-182.5,-182.5,-190,,Single-ply,,DQ,B,
Ondřej Smetaník,Czechia,M,2003,Juniors,93,92.64,-200,200,207.5,207.5,Single-ply,207.5,2,B,
Hermanni Järvenpää,Finland,M,2003,Juniors,105,104.9,-235,235,-250,235,Single-ply,235,2,B,
Dmytro Vovchok,Ukraine,M,2003,Juniors,120+,132.16,-210,210,220,220,Single-ply,220,1,B,
Krzysztof Perlik,Poland,M,2004,Juniors,74,74,147.5,155,-157.5,155,Single-ply,155,3,B,
Dawid Pietrykowski,Poland,M,2004,Juniors,120,118.58,130,205,220,220,Single-ply,220,2,B,
David Horník,Czechia,M,2004,Juniors,83,79.48,175,-182.5,,175,Single-ply,175,3,B,
Sven Sester,Germany,M,2005,Sub-Juniors,83,81.85,-165,-165,-165,,Single-ply,,DQ,B,
Martin Řehák,Czechia,M,2005,Sub-Juniors,74,71.92,165,175,-180,175,Single-ply,175,1,B,
Szymmon Godles,Poland,M,2005,Sub-Juniors,93,92.38,157.5,165,175,175,Single-ply,175,3,B,
Ihor Nikitin,Ukraine,M,2005,Sub-Juniors,93,85,157.5,167.5,175,175,Single-ply,175,2,B,
Eduard Andreiev,Ukraine,M,2005,Sub-Juniors,66,65.19,135,145,-152.5,145,Single-ply,145,2,B,
Samuel Antalik,Slovakia,M,2005,Sub-Juniors,66,64.1,95,110,-122.5,110,Single-ply,110,3,B,
Pawel Wloch,Poland,M,2006,Sub-Juniors,74,73.91,110,-150,150,150,Single-ply,150,2,B,
Jan Pilař,Czechia,M,2006,Sub-Juniors,83,81.86,145,-167.5,-167.5,145,Single-ply,145,1,B,
Dániel Sajben,Hungary,M,2006,Sub-Juniors,59,57.48,85,-105,105,105,Single-ply,105,1,B,
Samuel Marcin,Slovakia,M,2006,Sub-Juniors,120+,127.45,175,185,-200,185,Single-ply,185,1,B,
Jakub Golianek,Poland,M,2006,Sub-Juniors,83,82.18,-175,-175,-175,,Single-ply,,DQ,B,
Andrii Semeshkin,Ukraine,M,2006,Sub-Juniors,105,94.7,150,177.5,185,185,Single-ply,185,1,B,
Juraj Gabriel Blazicek,Slovakia,M,2006,Sub-Juniors,93,92.56,175,-190,190,190,Single-ply,190,1,B,
Radosław Rogala,Poland,M,2007,Sub-Juniors,59,58.19,70,77.5,-87.5,77.5,Single-ply,77.5,2,B,
Oleksandr Ponomarenko,Ukraine,M,2007,Sub-Juniors,66,66,140,147.5,-155,147.5,Single-ply,147.5,1,B,
Mick Ellender,UK,M,1945,Masters 4,93,91.09,95,97.5,-102.5,97.5,Raw,97.5,3,B,
Jean Noël Dubus,France,M,1949,Masters 4,120,106.93,-140,140,,140,Raw,140,1,B,
Ivan Veselý,Czechia,M,1949,Masters 4,120,118.56,-90,-90,-92.5,,Raw,,DQ,B,
Guy Laurent,France,M,1950,Masters 4,74,73.41,110,112.5,117.5,117.5,Raw,117.5,1,B,
Luis Antonio Riso,Spain,M,1952,Masters 4,93,88.23,110,120,-125,120,Raw,120,1,B,
Alain Collard,France,M,1952,Masters 4,83,80.16,115,125,-127.5,125,Raw,125,2,B,
Stanislas Couchy,France,M,1953,Masters 4,105,97.62,120,130,,130,Raw,130,2,B,
Valdor Malmborg,Sweden,M,1953,Masters 4,93,85.45,92.5,95,-97.5,95,Raw,95,4,B,
Stanisław Mentel,Poland,M,1954,Masters 3,93,91.58,180,185,190.5,190.5,Raw,190.5,1,B,
Stephen Vineburg,UK,M,1956,Masters 3,83,81.12,90,92.5,95,95,Raw,95,5,B,
Rodrigo Manuel Rodríguez Piñeiro,Spain,M,1957,Masters 3,105,95.68,110,120,122.5,122.5,Raw,122.5,4,B,
Ricky Ransome,UK,M,1958,Masters 3,105,95.42,115,117.5,120,120,Raw,120,5,B,
Jean-Marc Ruchaud,France,M,1959,Masters 3,105,104.38,140,147.5,-152.5,147.5,Raw,147.5,3,B,
Yngve Gustafsson,Sweden,M,1959,Masters 3,120+,136.7,157.5,165,170,170,Raw,170,2,B,
Philippe Valladas,France,M,1959,Masters 3,74,72.78,120,125,130,130,Raw,130,2,B,
Tomas Ring,Sweden,M,1960,Masters 3,83,82.7,135,140,145,145,Raw,145,1,B,
Philippe Delapille,France,M,1960,Masters 3,120,117.38,150,157.5,162.5,162.5,Raw,162.5,3,B,
Roland Asmus,Germany,M,1960,Masters 3,74,72.4,100,-105,-105,100,Raw,100,4,B,
Andy Rigby,UK,M,1962,Masters 3,105,104.47,190,204,208,208,Raw,208,1,B,
Mark Notschaele,Luxembourg,M,1963,Masters 3,120+,121.51,160,167.5,170,170,Raw,170,1,B,
Ismo Hietanen,Finland,M,1963,Masters 3,74,73.22,110,115,117.5,117.5,Raw,117.5,3,B,
Stewart Cowan,UK,M,1963,Masters 3,120,111.63,150,157.5,162.5,162.5,Raw,162.5,2,B,
Fabrice Leroy,France,M,1963,Masters 3,105,102.76,150,157.5,-162.5,157.5,Raw,157.5,2,B,
Pierre-François Lapeyre,France,M,1963,Masters 3,83,80.83,125,127.5,-130,127.5,Raw,127.5,4,B,
Claude Simian,France,M,1963,Masters 3,93,92.7,150,157.5,160,160,Raw,160,3,B,
Yves Lemagnen,France,M,1966,Masters 2,93,91.4,152.5,162.5,-172.5,162.5,Raw,162.5,4,B,
Lars Carlsson,Sweden,M,1966,Masters 2,74,73.11,132.5,140,147.5,147.5,Raw,147.5,2,B,
Hervé France,France,M,1966,Masters 2,93,92.4,182.5,187.5,-192.5,187.5,Raw,187.5,1,B,
Kjell Furesund,Norway,M,1966,Masters 2,120+,133.04,180,185,-195,185,Raw,185,2,B,
Robin van der Mee,Netherlands,M,1967,Masters 2,93,91.96,165,172.5,175,175,Raw,175,3,B,
Darius Ereksonas,Lithuania,M,1968,Masters 2,105,103.95,175,182.5,185,185,Raw,185,1,B,
Gilles Marigo,France,M,1968,Masters 2,59,58.78,115,120,-123,120,Raw,120,2,B,
Nicklas Karlsson,Sweden,M,1969,Masters 2,120,113.54,-170,170,-177.5,170,Raw,170,4,B,
Runar Saxegaard,Norway,M,1970,Masters 2,120,117.33,150,-160,-160,150,Raw,150,5,B,
Michael Wegerer,Austria,M,1970,Masters 2,83,82.86,147.5,152.5,-165,152.5,Raw,152.5,2,B,
Bruno Le Gargasson,France,M,1970,Masters 2,66,65.66,97.5,102.5,-105,102.5,Raw,102.5,2,B,
Darren Ball,UK,M,1970,Masters 2,120,118.92,-160,160,177.5,177.5,Raw,177.5,3,B,
Jean-Jacques Savoie,France,M,1970,Masters 2,120+,126.5,192.5,202.5,-207.5,202.5,Raw,202.5,1,B,
Mikołaj Kowalik,Poland,M,1971,Masters 2,120,112.15,175,180,182.5,182.5,Raw,182.5,2,B,
Sean Gaffney,UK,M,1971,Masters 2,120,112.9,-155,-155,-155,,Raw,,DQ,B,
Pasi Putkonen,Finland,M,1971,Masters 2,105,103.68,170,-177.5,182.5,182.5,Raw,182.5,2,B,
Mickaäl Lager,France,M,1971,Masters 2,74,73.95,160,168,170,170,Raw,170,1,B,
Vitalijus Stachovas,Lithuania,M,1971,Masters 2,83,81.52,145,-150,-152.5,145,Raw,145,3,B,
Ove Henning Lorentzen,Norway,M,1971,Masters 2,83,82.01,157.5,162.5,170,170,Raw,170,1,B,
Christopher Dolk,Sweden,M,1972,Masters 2,74,72.51,127.5,132.5,-140,132.5,Raw,132.5,4,B,
Bartosz Żelazko,Poland,M,1973,Masters 2,74,73.66,137.5,142.5,145,145,Raw,145,3,B,
Kenneth Ekborg,Sweden,M,1973,Masters 2,93,92.78,-180,-185,-185,,Raw,,DQ,B,
Scott Simon #1,UK,M,1974,Masters 1,120,113.44,200,207.5,215,215,Raw,215,1,B,
Arkadiusz Wloch,Poland,M,1975,Masters 1,74,73.86,130,137.5,-142.5,137.5,Raw,137.5,7,B,
Jussi Kuusikko,Finland,M,1975,Masters 1,105,103.15,195,200,-205,200,Raw,200,1,B,
David Litchfield,UK,M,1975,Masters 1,93,91.6,160,170,-172.5,170,Raw,170,5,B,
Christian Beckmann,Germany,M,1976,Masters 1,66,65.54,132.5,137.5,140,140,Raw,140,2,B,
Radoslav Bednarik,Slovakia,M,1976,Masters 1,105,104.6,-185,-185,185,185,Raw,185,2,B,
Sławomir Śledź,Poland,M,1976,Masters 1,66,65.63,147.5,152.5,157.5,157.5,Raw,157.5,1,B,
Sławomir Jasica,Poland,M,1977,Masters 1,93,91.04,175,180,-182.5,180,Raw,180,3,B,
Ville Vaivila,Finland,M,1977,Masters 1,66,65.68,100,107.5,,107.5,Raw,107.5,3,B,
Jussi Hirvimies,Finland,M,1977,Masters 1,120,119.92,200,-205,-205,200,Raw,200,3,B,
Kornél Schauer,Hungary,M,1977,Open,120,119.11,220,-225,-225,220,Raw,220,4,B,
Milan Smiljanić,Serbia,M,1978,Masters 1,120+,151.37,205,212.5,-222.5,212.5,Raw,212.5,3,B,
Marco Bologna,Germany,M,1979,Masters 1,74,72.55,150,157.5,-162.5,157.5,Raw,157.5,3,B,
Florent Lenglet,France,M,1979,Masters 1,83,82.59,175,182.5,-190,182.5,Raw,182.5,2,B,
Mariusz Marciniak,Poland,M,1980,Masters 1,93,92.55,182.5,187.5,190,190,Raw,190,1,B,
Fredrik Fossbakk,Sweden,M,1980,Masters 1,83,82.51,135,-140,-140,135,Raw,135,10,B,
Giorgi Bejashvili,Georgia,M,1980,Open,66,65.99,150,-155,155,155,Raw,155,3,B,
Adam Balawejder,Poland,M,1981,Masters 1,74,73.52,165,170,-172.5,170,Raw,170,2,B,
Linas Palivonas,Lithuania,M,1981,Masters 1,120,119.05,200,207.5,-217.5,207.5,Raw,207.5,2,B,
Richard Bertho,France,M,1981,Open,105,103.45,207.5,-215,-217.5,207.5,Raw,207.5,4,B,
Tario Teraiharoa,France,M,1981,Masters 1,120+,185.14,220,227.5,232.5,232.5,Raw,232.5,1,B,
David Hernandez,France,M,1981,Masters 1,120+,149.7,210,-215,-215,210,Raw,210,4,B,
Daniel Lecorre,France,M,1981,Masters 1,74,72.67,140,147.5,-150,147.5,Raw,147.5,4,B,
Ben Richens,UK,M,1981,Masters 1,83,82.07,132.5,137.5,140,140,Raw,140,9,B,
Ben Olenius,Finland,M,1981,Masters 1,120,119.98,-205,-205,-217.5,,Raw,,DQ,B,
Christian Malonga,France,M,1981,Masters 1,83,81.93,152.5,157.5,-165,157.5,Raw,157.5,6,B,
Nikolaj Walter,Germany,M,1982,Masters 1,120,117.99,170,182.5,-187.5,182.5,Raw,182.5,5,B,
Tommy Påhls,Sweden,M,1982,Open,120,118.68,227.5,-235,-237.5,227.5,Raw,227.5,3,B,
Dimitri Bonnay,France,M,1982,Open,120,119.07,210,-217.5,-230,210,Raw,210,10,B,
Volkan Ay,France,M,1982,Masters 1,74,70.88,-142.5,142.5,-147.5,142.5,Raw,142.5,5,B,
Bartłomiej Wirek,Poland,M,1983,Masters 1,83,79.86,-180,180,-187.5,180,Raw,180,3,B,
Eirik Jørgensen,Norway,M,1983,Masters 1,120,119.25,180,187.5,-200,187.5,Raw,187.5,4,B,
Nathan Oxford,UK,M,1983,Masters 1,105,103.3,165,172.5,177.5,177.5,Raw,177.5,4,B,
Saied Abdollahpour,Sweden,M,1983,Masters 1,83,82.8,172.5,-177.5,-182.5,172.5,Raw,172.5,4,B,
Andrew Davey,UK,M,1983,Masters 1,105,103.44,170,177.5,180,180,Raw,180,3,B,
William van der Struis,Netherlands,M,1983,Masters 1,83,82.73,160,165,-167.5,165,Raw,165,5,B,
Dan Kohut,UK,M,1983,Masters 1,120+,142.95,190,197.5,202.5,202.5,Raw,202.5,5,B,
Lars Lund,Denmark,M,1984,Open,66,65.79,127.5,135,-140,135,Raw,135,6,B,
José Carlos Cayuela Domínguez,Spain,M,1984,Open,93,88.59,155,160,165,165,Raw,165,8,B,
Kim Beck-Gundersen,Norway,M,1985,Open,93,91.68,180,190,200,200,Raw,200,5,B,
Ross Shahin-Ajerlo,UK,M,1985,Open,120+,129.11,187.5,200,205,205,Raw,205,6,B,
Robin Wijs,Netherlands,M,1986,Open,105,97,180,-190,195,195,Raw,195,6,B,
Jeffrey Hasselt,Netherlands,M,1987,Open,83,82.29,185,192.5,197.5,197.5,Raw,197.5,3,B,
Jakub Sedláček,Czechia,M,1988,Open,93,92.29,202.5,210,217.5,217.5,Raw,217.5,3,B,
Michael Jurgen Herrmann,Denmark,M,1988,Open,93,92.56,177.5,187.5,-192.5,187.5,Raw,187.5,7,B,
Wesley McGuinness,UK,M,1989,Open,105,99.49,175,185,187.5,187.5,Raw,187.5,7,B,
Mads Pedersen,Denmark,M,1989,Open,83,82.64,180,187.5,-195,187.5,Raw,187.5,5,B,
Moses Onyegbule,UK,M,1989,Open,120,117.78,-195,200,210,210,Raw,210,9,B,
Andrei Caliani-Vainer,Romania,M,1989,Open,120+,142.2,210,217.5,225,225,Raw,225,4,B,
Kévin D'Heer,France,M,1989,Open,120,119.15,230,237.5,242.5,242.5,Raw,242.5,1,B,
Daniel McGauley,UK,M,1990,Special Olympics,59,57.3,65,67.5,70,70,Raw,70,1,B,
Guillermo González López,Spain,M,1990,Open,93,92.97,182.5,192.5,-197.5,192.5,Raw,192.5,6,B,
Levani Mtiulishvili,Georgia,M,1990,Open,105,103.11,215,220,-235,220,Raw,220,2,B,
Michał Łysoń,Poland,M,1991,Open,66,65.58,130,135,-150,135,Raw,135,5,B,
Óscar Sánchez Mora,Spain,M,1992,Open,83,82.77,130,137.5,-140,137.5,Raw,137.5,10,B,
Paulius Morkvėnas,Lithuania,M,1992,Open,105,103.86,-210,210,-217.5,210,Raw,210,3,B,
Josef Eriksson,Sweden,M,1992,Open,93,92.53,212.5,217.5,220,220,Raw,220,1,B,
Ádám Szívós,Hungary,M,1992,Open,83,82.26,165,172.5,-175,172.5,Raw,172.5,7,B,
Ashley Watson #2,UK,M,1993,Open,105,103.85,190,195,197.5,197.5,Raw,197.5,5,B,
Jaideep Wasu,UK,M,1994,Open,83,82.41,150,157.5,165,165,Raw,165,9,B,
Jason Nativel,France,M,1995,Open,66,65.83,150,157.5,162.5,162.5,Raw,162.5,2,B,
Marco Lee,Netherlands,M,1998,Open,83,82.54,175,-180,182.5,182.5,Raw,182.5,6,B,
Gaute Lynghamar Ronæs,Norway,M,2000,Juniors,59,57.95,117.5,120,-127.5,120,Raw,120,3,B,
Clément Gomez,France,M,2000,Juniors,105,103.51,187.5,197.5,-202.5,197.5,Raw,197.5,2,B,
Jules Guillaume,France,M,2000,Juniors,66,65.82,137.5,142.5,-147.5,142.5,Raw,142.5,3,B,
Simen Johnson Myrvold,Norway,M,2000,Juniors,83,82.84,180,187.5,192.5,192.5,Raw,192.5,1,B,
Jakob Riis Nielsen,Denmark,M,2000,Juniors,93,92.68,182.5,190,192.5,192.5,Raw,192.5,1,B,
Nino van Rikxoort,Netherlands,M,2000,Juniors,105,104.53,180,187.5,192.5,192.5,Raw,192.5,5,B,
Andrés Guerrero Morilla,Spain,M,2000,Juniors,105,103.53,180,187.5,197.5,197.5,Raw,197.5,3,B,
Pawel Gluch,Poland,M,2000,Juniors,120,107.54,187.5,192.5,-197.5,192.5,Raw,192.5,2,B,
Daan Wesdorp,Netherlands,M,2000,Juniors,120,105.85,180,187.5,190,190,Raw,190,3,B,
Zahir van Eck,Netherlands,M,2000,Juniors,74,72.63,145,150,155,155,Raw,155,3,B,
Alexandre Brient,France,M,2000,Juniors,66,65.9,140,145,-150,145,Raw,145,2,B,
Wouter Klaver,Netherlands,M,2000,Juniors,120+,120.66,195,202.5,205,205,Raw,205,1,B,
Ammar Nassier,UK,M,2000,Juniors,74,73.76,147.5,155,-160,155,Raw,155,5,B,
Aldo Bagagli,France,M,2000,Juniors,93,90.01,160,170,-177.5,170,Raw,170,9,B,
Jakub Dobiáš,Czechia,M,2000,Juniors,93,91.96,172.5,182.5,187.5,187.5,Raw,187.5,2,B,
Hermann Charbonnier,France,M,2001,Juniors,59,57.99,115,120,127.5,127.5,Raw,127.5,1,B,
Martin Nguyen #3,UK,M,2001,Juniors,66,65.53,-142.5,145,-152.5,145,Raw,145,1,B,
Kristian Eek Haugen,Norway,M,2001,Juniors,120,116.45,202.5,217.5,-227.5,217.5,Raw,217.5,1,B,
Tom Field,UK,M,2001,Juniors,83,81.96,170,-177.5,177.5,177.5,Raw,177.5,2,B,
Arthur Hauet,France,M,2001,Juniors,74,69.35,145,152.5,157.5,157.5,Raw,157.5,2,B,
Antony Weston,UK,M,2001,Juniors,120+,132.18,190,197.5,-207.5,197.5,Raw,197.5,2,B,
Jonathan Henningsson,Sweden,M,2001,Open,83,82.7,195,202.5,210,210,Raw,210,2,B,
Pierpaolo van Leeuwen,Netherlands,M,2001,Juniors,93,92.18,157.5,165,167.5,167.5,Raw,167.5,10,B,
Melvyn Bataillie,France,M,2001,Juniors,83,81.56,155,165,170,170,Raw,170,5,B,
Sam Whale,UK,M,2001,Juniors,74,73.78,135,-140,140,140,Raw,140,7,B,
Morgan Mascaro,France,M,2001,Juniors,83,82.65,162.5,-167.5,170,170,Raw,170,7,B,
Aleksander Koszewski,Poland,M,2002,Juniors,93,90,175,-180,-182.5,175,Raw,175,7,B,
Jesse van Mourik,Netherlands,M,2002,Juniors,93,91.59,172.5,177.5,-182.5,177.5,Raw,177.5,6,B,
Daniel Wasilewski,Poland,M,2002,Juniors,93,89.06,172.5,-177.5,-182.5,172.5,Raw,172.5,8,B,
Isak Asperud,Norway,M,2002,Juniors,93,92.85,175,185,-192.5,185,Raw,185,4,B,
Jasper Kovacs,Netherlands,M,2002,Juniors,74,73.21,142.5,147.5,150,150,Raw,150,6,B,
Alejandro Rodríguez Pijuan,Spain,M,2002,Juniors,120,105.72,160,-165,170,170,Raw,170,5,B,
Kemal Ergin,Netherlands,M,2002,Juniors,59,58.39,115,120,127.5,127.5,Raw,127.5,2,B,
Niels Ceuppens,Belgium,M,2002,Juniors,105,101.31,187.5,195,-197.5,195,Raw,195,4,B,
Trym Greibrok,Norway,M,2003,Juniors,105,101.02,180,187.5,-195,187.5,Raw,187.5,7,B,
Anton Nykänen,Finland,M,2003,Juniors,74,73.07,165,172.5,180,180,Raw,180,1,B,
Hermanni Järvenpää,Finland,M,2003,Juniors,105,104.94,180,190,-197.5,190,Raw,190,6,B,
Emil Lundgren,Sweden,M,2003,Open,74,73.95,182.5,192.5,195,195,Raw,195,2,B,
Dawid Pietrykowski,Poland,M,2004,Juniors,120+,120.21,145,-152.5,152.5,152.5,Raw,152.5,4,B,
Marcus Thornton,UK,M,2004,Juniors,120,117.88,-185,185,190,190,Raw,190,4,B,
Max Wadsworth,UK,M,2004,Juniors,93,92.61,175,182.5,-187.5,182.5,Raw,182.5,5,B,
Mikołaj Zając,Poland,M,2005,Sub-Juniors,105,99.3,127.5,135,140,140,Raw,140,3,B,
Martin Řehák,Czechia,M,2005,Sub-Juniors,74,72.17,137.5,142.5,-147.5,142.5,Raw,142.5,1,B,
Dawid Zybura,Poland,M,2005,Sub-Juniors,120,109.45,135,137.5,142.5,142.5,Raw,142.5,2,B,
Romain Pipart,France,M,2005,Sub-Juniors,66,65.65,125,-130,135,135,Raw,135,1,B,
Jakob Grandl,Austria,M,2005,Sub-Juniors,83,82.28,155,165,172.5,172.5,Raw,172.5,1,B,
Urbain Huchet,France,M,2005,Sub-Juniors,59,58.74,102.5,107.5,-112.5,107.5,Raw,107.5,1,B,
Brandon Lee #10,UK,M,2005,Sub-Juniors,120+,123.07,125,130,135,135,Raw,135,1,B,
Noah Williams #1,UK,M,2005,Sub-Juniors,59,58.89,85,92.5,95,95,Raw,95,2,B,
Pawel Wloch,Poland,M,2006,Sub-Juniors,74,73.82,122.5,-127.5,-127.5,122.5,Raw,122.5,5,B,
Piotr Fabia,Poland,M,2006,Sub-Juniors,93,83.43,120,,,120,Raw,120,1,B,
Dániel Sajben,Hungary,M,2006,Sub-Juniors,59,56.85,80,90,-95,90,Raw,90,4,B,
Pavol Ragula,Slovakia,M,2006,Sub-Juniors,66,64.15,122.5,-130,-132.5,122.5,Raw,122.5,4,B,
Oliver Philpot,UK,M,2006,Sub-Juniors,105,96.57,130,137.5,140,140,Raw,140,2,B,
Tomas Dirda,Lithuania,M,2006,Sub-Juniors,74,71.89,125,-130,-130,125,Raw,125,4,B,
Wiktor Wołoszyn,Poland,M,2007,Sub-Juniors,59,58.47,90,92.5,-95,92.5,Raw,92.5,3,B,
Vencel Balog,Hungary,M,2007,Sub-Juniors,66,61.7,110,-120,-120,110,Raw,110,5,B,
Ernestas Juodis,Lithuania,M,2007,Sub-Juniors,83,78.42,-140,140,-142.5,140,Raw,140,3,B,
Oleksandr Ponomarenko,Ukraine,M,2007,Sub-Juniors,66,65.71,122.5,127.5,132.5,132.5,Raw,132.5,2,B,
Abel Szekeres,Hungary,M,2008,Sub-Juniors,120+,139.05,110,117.5,-125,117.5,Raw,117.5,2,B,
Kaloyan Panayotov,Bulgaria,M,2008,Sub-Juniors,66,65.37,120,125,-130,125,Raw,125,3,B,
Seppo Komppa,Finland,M,1945,Masters 4,93,92.52,80,100,102.5,102.5,Raw,102.5,2,B,
John Terragni,Denmark,M,1947,Masters 4,74,72.66,105,110,115,115,Raw,115,2,B,
Markku Kemppainen,Finland,M,1949,Masters 4,66,65.26,90,95,97.5,97.5,Raw,97.5,1,B,
Gerhard Baumeister,Germany,M,1952,Masters 4,83,82.12,117.5,127.5,-130,127.5,Raw,127.5,1,B,
Harri Tirronen,Finland,M,1953,Masters 4,105,103.72,162.5,167.5,-172.5,167.5,Raw,167.5,1,B,
Werner Wieninger,Germany,M,1957,Masters 3,120,117.15,165,-170,-170,165,Raw,165,1,B,
Joachim Graupner,Germany,M,1958,Masters 3,83,81.53,137.5,140,142.5,142.5,Raw,142.5,2,B,
Franz Nerb,Germany,M,1959,Masters 3,93,91.67,172.5,175,-180,175,Raw,175,2,B,
Erik Rasmussen,Denmark,M,1962,Masters 3,83,82.87,120,127.5,130,130,Raw,130,3,B,
Erkki Rajala,Finland,M,1962,Masters 3,74,72.42,155,160,-162.5,160,Raw,160,1,B,
Miroslav Paukert,Czechia,M,1963,Masters 3,93,92.57,140,-150,-152.5,140,Raw,140,5,B,
Uwe Hering,Germany,M,1963,Masters 3,93,92.04,-150,150,-157.5,150,Raw,150,4,B,
Georg Haug,Germany,M,1965,Masters 2,120+,152.9,172.5,-177.5,-182.5,172.5,Raw,172.5,4,B,
Jari Salste,Finland,M,1965,Masters 2,83,82.62,130,-135,-135,130,Raw,130,4,B,
Oleksandr Chernyshov,Ukraine,M,1966,Open,66,65.71,137.5,142.5,-150,142.5,Raw,142.5,4,B,
János Cserna,Hungary,M,1968,Masters 2,120,119.31,185,190,195,195,Raw,195,1,B,
Maik Staegemann,Germany,M,1969,Masters 2,66,65.2,120,130,-135,130,Raw,130,1,B,
Thomas Kraemer,Germany,M,1970,Masters 2,105,104.13,155,165,172.5,172.5,Raw,172.5,3,B,
Christian Klein,Germany,M,1970,Masters 2,59,54.89,117.5,120,122.5,122.5,Raw,122.5,1,B,
Anders Enkvist,Finland,M,1972,Masters 2,74,73.54,125,130,-135,130,Raw,130,5,B,
Yaroslav Sytar,Ukraine,M,1973,Masters 2,120+,135.93,172.5,177.5,-185,177.5,Raw,177.5,3,B,
Leonid Plotnytskiy,Ukraine,M,1973,Masters 2,93,91.24,175,182.5,-190,182.5,Raw,182.5,2,B,
Jan Kluwe,Germany,M,1974,Masters 1,83,82.36,147.5,152.5,155,155,Raw,155,7,B,
Sven Mueller,Germany,M,1975,Masters 1,120+,128.4,210,220,227.5,227.5,Raw,227.5,2,B,
Dmytro Pronevych,Ukraine,M,1975,Masters 1,93,92.07,180,-185,-185,180,Raw,180,4,B,
Christian Roehner,Germany,M,1977,Masters 1,83,81.5,140,150,-152.5,150,Raw,150,8,B,
Lóránd Berke,Hungary,M,1979,Masters 1,93,92.59,165,-172.5,-172.5,165,Raw,165,6,B,
Jani Haapamäki,Finland,M,1979,Masters 1,74,73.35,165,170,-175.5,170,Raw,170,1,B,
Kęstutis Milkintis,Lithuania,M,1979,Masters 1,93,90.93,175,180,185,185,Raw,185,2,B,
Stefan Mohr,Germany,M,1980,Masters 1,59,58.48,90,95,100,100,Raw,100,1,B,
Åke Erskjäns,Sweden,M,1981,Masters 1,74,73.39,130,140,-145,140,Raw,140,6,B,
Levani Giligashvili,Georgia,M,1982,Open,74,73.98,165,172.5,177.5,177.5,Raw,177.5,3,B,
Radek Pochylý,Czechia,M,1982,Masters 1,120+,146.12,195,-200,-200,195,Raw,195,6,B,
Simo Sistonen,Finland,M,1983,Open,120,119.06,230,237.5,-245,237.5,Raw,237.5,2,B,
Raino Hellberg,Finland,M,1983,Masters 1,83,82.34,175,182.5,-190,182.5,Raw,182.5,1,B,
Tsotne Bezhashvili,Georgia,M,1985,Open,66,65.93,170,177.5,-182.5,177.5,Raw,177.5,1,B,
Wouter De Saedeleer,Belgium,M,1985,Open,120,117.48,205,212.5,217.5,217.5,Raw,217.5,5,B,
Alexander Brück,Germany,M,1986,Open,120,118.93,205,212.5,-215,212.5,Raw,212.5,8,B,
Ivan Chuprinko,Ukraine,M,1986,Open,74,73.55,202.5,210,,210,Raw,210,1,B,
Genadi Otiashvili,Georgia,M,1987,Open,83,81.73,185,192.5,-197.5,192.5,Raw,192.5,4,B,
Stefan Milanović,Serbia,M,1989,Open,120+,128.85,210,-220,-220,210,Raw,210,5,B,
Benjamin Haugk,Germany,M,1990,Open,83,82.96,162.5,172.5,-177.5,172.5,Raw,172.5,8,B,
Thomas Maik Schoeneck,Germany,M,1990,Open,120+,139.8,235,240,242.5,242.5,Raw,242.5,2,B,
Fredrik Eskil Myrvang,Norway,M,1990,Open,59,56.14,155,160,165,165,Raw,165,1,B,
Nazariy Dyachuk,Ukraine,M,1991,Open,120,112.56,215,-222.5,-222.5,215,Raw,215,7,B,
Jarle Bjørgo Onarheim,Norway,M,1992,Open,93,92.78,195,205,212.5,212.5,Raw,212.5,4,B,
Joni Tajakka,Finland,M,1992,Open,105,104.16,217.5,222.5,-237.5,222.5,Raw,222.5,1,B,
Vasyl Kropyvnytskyi,Ukraine,M,1993,Open,59,58.28,140,-150,-150,140,Raw,140,3,B,
Alan Peeters,Belgium,M,1994,Open,120,118.91,210,217.5,-225,217.5,Raw,217.5,6,B,
Samuel Hajnik,Slovakia,M,1994,Open,120+,155.69,235,-240,-245,235,Raw,235,3,B,
Bohdan Bon,Ukraine,M,1995,Open,93,92.09,205,-215,217.5,217.5,Raw,217.5,2,B,
Volodymyr Tsaturian,Ukraine,M,1995,Open,83,82.69,200,207.5,210,210,Raw,210,1,B,
Marek Novák,Czechia,M,1997,Open,120+,173,250,257.5,262.5,262.5,Raw,262.5,1,B,
Tobias Wollny,Germany,M,2000,Juniors,83,82.38,140,150,155,155,Raw,155,9,B,
Dominik Wegener,Germany,M,2000,Juniors,59,58.72,100,107.5,-112.5,107.5,Raw,107.5,4,B,
Rik De Grauwe,Belgium,M,2000,Juniors,83,81.64,165,170,-172.5,170,Raw,170,6,B,
Daniel Lochman,Czechia,M,2000,Juniors,83,82.52,165,172.5,-180,172.5,Raw,172.5,3,B,
Natan Balogh,Hungary,M,2000,Juniors,83,79.18,155,162.5,170,170,Raw,170,4,B,
Vasyl Berezhnyi,Ukraine,M,2000,Juniors,74,73.42,147.5,155,-160,155,Raw,155,4,B,
Petr Milichovský,Czechia,M,2001,Juniors,105,103.28,-180,180,187.5,187.5,Raw,187.5,8,B,
Tornike Paatashvili,Georgia,M,2001,Juniors,105,104.47,195,200,205,205,Raw,205,1,B,
Simoni Orbelashvili,Georgia,M,2002,Juniors,66,65.41,-150,-150,,,Raw,,DQ,B,
Ondřej Kaucký,Czechia,M,2002,Juniors,83,82.82,-155,-155,155,155,Raw,155,10,B,
Šimon Král,Czechia,M,2002,Juniors,120+,143.7,157.5,167.5,177.5,177.5,Raw,177.5,3,B,
Dario Merbeler,Germany,M,2003,Juniors,120,118.88,170,-182.5,-182.5,170,Raw,170,6,B,
Jaba Sepiashvili,Georgia,M,2003,Open,59,58.17,145,147.5,-152.5,147.5,Raw,147.5,2,B,
Noa Hublou,Belgium,M,2003,Juniors,83,81.11,155,-160,160,160,Raw,160,8,B,
Viktor Hubáček,Czechia,M,2004,Juniors,93,91.32,165,175,185,185,Raw,185,3,B,
Sven Sester,Germany,M,2005,Sub-Juniors,83,81.85,-130,-130,130,130,Raw,130,4,B,
Daniel Wasenius,Finland,M,2005,Sub-Juniors,74,72.1,85,92.5,-100,92.5,Raw,92.5,6,B,
Ossi Rantala,Finland,M,2005,Sub-Juniors,105,102.55,137.5,145,-152.5,145,Raw,145,1,B,
Maksym Bahlai,Ukraine,M,2005,Sub-Juniors,74,71.32,-140,140,-145,140,Raw,140,2,B,
Daniil Vinnytskyi,Ukraine,M,2005,Sub-Juniors,120,116.97,155,167.5,-182.5,167.5,Raw,167.5,1,B,
Zakhar Miroshnychenko,Ukraine,M,2006,Sub-Juniors,74,73.41,125,-132.5,132.5,132.5,Raw,132.5,3,B,
Rodion Voronin,Ukraine,M,2006,Sub-Juniors,83,81.17,140,145,147.5,147.5,Raw,147.5,2,B,
Stanislav Yaremenko,Ukraine,M,2007,Sub-Juniors,53,52.34,95,105,-115,105,Raw,105,1,B,
